[
  {
    "name": "Apple iPhone 14 128GB (e-Sim)",
    "price": 829,
    "imgURL": "./products-img/26564.png",
    "article": 26564,
    "color": "Midnight"
  },
  {
    "name": "Apple iPhone 14 128GB (MPUR3)",
    "price": 879,
    "imgURL": "./products-img/26565.png",
    "article": 26565,
    "color": "Starlight"
  },
  {
    "name": "Apple iPhone 14 128GB (MPV03)",
    "price": 879,
    "imgURL": "./products-img/26566.png",
    "article": 26566,
    "color": "Purple"
  },
  {
    "name": "Apple iPhone 14 128GB (MPVN3)",
    "price": 879,
    "imgURL": "./products-img/26567.png",
    "article": 26567,
    "color": "Blue"
  },
  {
    "name": "Apple iPhone 14 128GB (MPVA3)",
    "price": 879,
    "imgURL": "./products-img/26568.png",
    "article": 26568,
    "color": "Red"
  },
  {
    "name": "Apple iPhone 14 256GB (MPVX3)",
    "price": 989,
    "imgURL": "./products-img/26569.png",
    "article": 26569,
    "color": "Midnight"
  },
  {
    "name": "Apple iPhone 14 256GB (MPW43)",
    "price": 1049,
    "imgURL": "./products-img/26570.png",
    "article": 26570,
    "color": "Starlight"
  },
  {
    "name": "Apple iPhone 14 256GB (MPWP3)",
    "price": 999,
    "imgURL": "./products-img/26571.png",
    "article": 26571,
    "color": "Blue"
  },
  {
    "name": "Apple iPhone 14 256GB (MPWA3)",
    "price": 999,
    "imgURL": "./products-img/26572.png",
    "article": 26572,
    "color": "Purple"
  },
  {
    "name": "Apple iPhone 14 256GB (MPWH3)",
    "price": 999,
    "imgURL": "./products-img/26573.png",
    "article": 26573,
    "color": "Red"
  }
]