// Jest Snapshot v1, https://goo.gl/fbAQLP

exports[`snapshot button 1`] = `
<button
  className="button "
  data-testid="button"
  style={
    Object {
      "background": "green",
    }
  }
>
  submit
</button>
`;
